\relax 
\providecommand\hyper@newdestlabel[2]{}
\providecommand\babel@aux[2]{}
\@nameuse{bbl@beforestart}
\providecommand\HyperFirstAtBeginDocument{\AtBeginDocument}
\HyperFirstAtBeginDocument{\ifx\hyper@anchor\@undefined
\global\let\oldcontentsline\contentsline
\gdef\contentsline#1#2#3#4{\oldcontentsline{#1}{#2}{#3}}
\global\let\oldnewlabel\newlabel
\gdef\newlabel#1#2{\newlabelxx{#1}#2}
\gdef\newlabelxx#1#2#3#4#5#6{\oldnewlabel{#1}{{#2}{#3}}}
\AtEndDocument{\ifx\hyper@anchor\@undefined
\let\contentsline\oldcontentsline
\let\newlabel\oldnewlabel
\fi}
\fi}
\global\let\hyper@last\relax 
\gdef\HyperFirstAtBeginDocument#1{#1}
\providecommand\HyField@AuxAddToFields[1]{}
\providecommand\HyField@AuxAddToCoFields[2]{}
\providecommand*\new@tpo@label[2]{}
\citation{Aad_2012}
\citation{Chatrchyan_2012}
\citation{Englert:2019fku}
\citation{ATLAS:2022vkf}
\citation{CMS:2022dwd}
\citation{ATLAS:2008xda}
\citation{CMS:2008xjf}
\babel@aux{english}{}
\@writefile{toc}{\contentsline {section}{\numberline {1}Introduction}{1}{section.1}\protected@file@percent }
\citation{Peskin:1995ev}
\citation{CMS:2022dwd}
\@writefile{toc}{\contentsline {section}{\numberline {2}Electroweak Interactions and Spontaneous Symmetry Breaking}{2}{section.2}\protected@file@percent }
\newlabel{phi4lag}{{2.1}{2}{Electroweak Interactions and Spontaneous Symmetry Breaking}{equation.2.1}{}}
\newlabel{phi4pot}{{2.2}{2}{Electroweak Interactions and Spontaneous Symmetry Breaking}{equation.2.2}{}}
\newlabel{phi4nlag}{{2.3}{2}{Electroweak Interactions and Spontaneous Symmetry Breaking}{equation.2.3}{}}
\@writefile{toc}{\contentsline {subsection}{\numberline {2.1}Higgs Mechanism}{2}{subsection.2.1}\protected@file@percent }
\newlabel{qedlag}{{2.4}{2}{Higgs Mechanism}{equation.2.4}{}}
\newlabel{gflag}{{2.5}{2}{Higgs Mechanism}{equation.2.5}{}}
\newlabel{qedgflag}{{2.6}{2}{Higgs Mechanism}{equation.2.6}{}}
\citation{Englert:2019fku}
\citation{Peskin:1995ev}
\newlabel{series}{{2.1}{3}{Higgs Mechanism}{equation.2.7}{}}
\newlabel{longi}{{2.8}{3}{Higgs Mechanism}{equation.2.8}{}}
\newlabel{emlag}{{2.1}{3}{Higgs Mechanism}{equation.2.9}{}}
\@writefile{toc}{\contentsline {subsection}{\numberline {2.2}The Glashow-Weinberg-Salam (GWS) theory of Electroweak Interactions}{3}{subsection.2.2}\protected@file@percent }
\newlabel{compscalar}{{2.10}{3}{The Glashow-Weinberg-Salam (GWS) theory of Electroweak Interactions}{equation.2.10}{}}
\newlabel{potential}{{2.11}{3}{The Glashow-Weinberg-Salam (GWS) theory of Electroweak Interactions}{equation.2.11}{}}
\newlabel{vev}{{2.12}{4}{The Glashow-Weinberg-Salam (GWS) theory of Electroweak Interactions}{equation.2.12}{}}
\newlabel{covder}{{2.13}{4}{The Glashow-Weinberg-Salam (GWS) theory of Electroweak Interactions}{equation.2.13}{}}
\newlabel{kinetic}{{2.14}{4}{The Glashow-Weinberg-Salam (GWS) theory of Electroweak Interactions}{equation.2.14}{}}
\newlabel{mbosons}{{2.15}{4}{The Glashow-Weinberg-Salam (GWS) theory of Electroweak Interactions}{equation.2.15}{}}
\newlabel{bosons}{{2.16}{4}{The Glashow-Weinberg-Salam (GWS) theory of Electroweak Interactions}{equation.2.16}{}}
\newlabel{ncovder}{{2.17}{4}{The Glashow-Weinberg-Salam (GWS) theory of Electroweak Interactions}{equation.2.17}{}}
\newlabel{nncovder}{{2.18}{4}{The Glashow-Weinberg-Salam (GWS) theory of Electroweak Interactions}{equation.2.18}{}}
\newlabel{sincos}{{2.19}{4}{The Glashow-Weinberg-Salam (GWS) theory of Electroweak Interactions}{equation.2.19}{}}
\newlabel{leftright}{{2.20}{4}{The Glashow-Weinberg-Salam (GWS) theory of Electroweak Interactions}{equation.2.20}{}}
\newlabel{lagr}{{2.21}{5}{The Glashow-Weinberg-Salam (GWS) theory of Electroweak Interactions}{equation.2.21}{}}
\newlabel{curr}{{2.2}{5}{The Glashow-Weinberg-Salam (GWS) theory of Electroweak Interactions}{equation.2.22}{}}
\newlabel{fermass}{{2.23}{5}{The Glashow-Weinberg-Salam (GWS) theory of Electroweak Interactions}{equation.2.23}{}}
\newlabel{fermasses}{{2.24}{5}{The Glashow-Weinberg-Salam (GWS) theory of Electroweak Interactions}{equation.2.24}{}}
\newlabel{qmasses}{{2.25}{5}{The Glashow-Weinberg-Salam (GWS) theory of Electroweak Interactions}{equation.2.25}{}}
\@writefile{toc}{\contentsline {subsection}{\numberline {2.3}The Higgs Boson}{5}{subsection.2.3}\protected@file@percent }
\newlabel{hvev}{{2.26}{5}{The Higgs Boson}{equation.2.26}{}}
\newlabel{hlag}{{2.27}{5}{The Higgs Boson}{equation.2.27}{}}
\newlabel{hpot}{{2.28}{5}{The Higgs Boson}{equation.2.28}{}}
\citation{ATLAS:2008xda}
\newlabel{hkin}{{2.29}{6}{The Higgs Boson}{equation.2.29}{}}
\newlabel{hkinf}{{2.30}{6}{The Higgs Boson}{equation.2.30}{}}
\@writefile{toc}{\contentsline {section}{\numberline {3}The Large Hadron Collider (LHC)}{6}{section.3}\protected@file@percent }
\@writefile{toc}{\contentsline {subsection}{\numberline {3.1}The ATLAS Detector}{6}{subsection.3.1}\protected@file@percent }
\@writefile{toc}{\contentsline {subsubsection}{\numberline {3.1.1}Inner Detector}{6}{subsubsection.3.1.1}\protected@file@percent }
\@writefile{toc}{\contentsline {subsubsection}{\numberline {3.1.2}Calorimeters}{6}{subsubsection.3.1.2}\protected@file@percent }
\citation{CMS:2008xjf}
\@writefile{lof}{\contentsline {figure}{\numberline {1}{\ignorespaces A computer generated view of the ATLAS detector. It is 46m long, 25m in diameter and weighs 7,000 tonnes. It is the biggest particle detector ever built. Image taken from \href  {https://cds.cern.ch/record/1095924?ln=en}{\textsc  {atlas}}\relax }}{7}{figure.caption.1}\protected@file@percent }
\providecommand*\caption@xref[2]{\@setref\relax\@undefined{#1}}
\newlabel{atlasdet}{{1}{7}{A computer generated view of the ATLAS detector. It is 46m long, 25m in diameter and weighs 7,000 tonnes. It is the biggest particle detector ever built. Image taken from \href {https://cds.cern.ch/record/1095924?ln=en}{\textsc {atlas}}\relax }{figure.caption.1}{}}
\@writefile{toc}{\contentsline {subsubsection}{\numberline {3.1.3}Muon Spectrometer}{7}{subsubsection.3.1.3}\protected@file@percent }
\@writefile{toc}{\contentsline {subsubsection}{\numberline {3.1.4}Magnet System}{7}{subsubsection.3.1.4}\protected@file@percent }
\@writefile{toc}{\contentsline {subsection}{\numberline {3.2}The CMS Detector}{7}{subsection.3.2}\protected@file@percent }
\@writefile{toc}{\contentsline {subsubsection}{\numberline {3.2.1}Inner Tracker}{8}{subsubsection.3.2.1}\protected@file@percent }
\@writefile{lof}{\contentsline {figure}{\numberline {2}{\ignorespaces A computer generated view of the CMS detector. The detector weighs 14,000 tonnes, is 21m long and 15m high and is equipped with a strong 3.8 T magnetic field. Image taken from \href  {https://home.cern/resources/image/experiments/cms-images-gallery}{\textsc  {cms}}\relax }}{8}{figure.caption.2}\protected@file@percent }
\newlabel{cmsdet}{{2}{8}{A computer generated view of the CMS detector. The detector weighs 14,000 tonnes, is 21m long and 15m high and is equipped with a strong 3.8 T magnetic field. Image taken from \href {https://home.cern/resources/image/experiments/cms-images-gallery}{\textsc {cms}}\relax }{figure.caption.2}{}}
\@writefile{toc}{\contentsline {subsubsection}{\numberline {3.2.2}The Electromagnetic Calorimeter}{8}{subsubsection.3.2.2}\protected@file@percent }
\@writefile{toc}{\contentsline {subsubsection}{\numberline {3.2.3}The Hadron Calorimeter}{8}{subsubsection.3.2.3}\protected@file@percent }
\@writefile{toc}{\contentsline {subsubsection}{\numberline {3.2.4}Muon System}{8}{subsubsection.3.2.4}\protected@file@percent }
\@writefile{toc}{\contentsline {section}{\numberline {4}Properties of the Higgs Boson}{9}{section.4}\protected@file@percent }
\@writefile{toc}{\contentsline {subsection}{\numberline {4.1}Production}{9}{subsection.4.1}\protected@file@percent }
\@writefile{lof}{\contentsline {figure}{\numberline {3}{\ignorespaces Higgs boson production through ggF (a), VBF (c), associated production with a pair of top-quarks ($t\bar  {t}H$) or bottom-quarks ($b\bar  {b}H$) (b), a W/Z boson (d) and a single top (e,f). The coupling modifiers $\kappa $ are labelled for each coupling.\relax }}{9}{figure.caption.3}\protected@file@percent }
\newlabel{prod}{{3}{9}{Higgs boson production through ggF (a), VBF (c), associated production with a pair of top-quarks ($t\bar {t}H$) or bottom-quarks ($b\bar {b}H$) (b), a W/Z boson (d) and a single top (e,f). The coupling modifiers $\kappa $ are labelled for each coupling.\relax }{figure.caption.3}{}}
\@writefile{toc}{\contentsline {subsection}{\numberline {4.2}di-Higgs Production}{9}{subsection.4.2}\protected@file@percent }
\@writefile{toc}{\contentsline {subsection}{\numberline {4.3}Decay}{9}{subsection.4.3}\protected@file@percent }
\bibstyle{plain}
\bibdata{ref}
\bibcite{ATLAS:2022vkf}{1}
\bibcite{CMS:2022dwd}{2}
\bibcite{ATLAS:2008xda}{3}
\bibcite{CMS:2008xjf}{4}
\bibcite{Englert:2019fku}{5}
\bibcite{Aad_2012}{6}
\bibcite{Chatrchyan_2012}{7}
\bibcite{Peskin:1995ev}{8}
\@writefile{lof}{\contentsline {figure}{\numberline {4}{\ignorespaces Higgs boson pair production through ggH (k,l) and VBF (m,n,o). The coupling modifiers $\kappa $ are labelled for each different coupling.\relax }}{10}{figure.caption.4}\protected@file@percent }
\newlabel{diprod}{{4}{10}{Higgs boson pair production through ggH (k,l) and VBF (m,n,o). The coupling modifiers $\kappa $ are labelled for each different coupling.\relax }{figure.caption.4}{}}
\@writefile{lof}{\contentsline {figure}{\numberline {5}{\ignorespaces Higgs boson decays into a pair of W or Z bosons (g), a pair of fermions, mainly top/bottom quarks and the $\tau $-lepton (h) and a pair of photons or Z$\gamma $ (i,j). The coupling modifiers $\kappa $ are labelled for each different coupling.\relax }}{11}{figure.caption.5}\protected@file@percent }
\newlabel{decay}{{5}{11}{Higgs boson decays into a pair of W or Z bosons (g), a pair of fermions, mainly top/bottom quarks and the $\tau $-lepton (h) and a pair of photons or Z$\gamma $ (i,j). The coupling modifiers $\kappa $ are labelled for each different coupling.\relax }{figure.caption.5}{}}
\gdef \@abspage@last{11}
